{
  "games" : [
    {
        "short_name": "mmf",
        "title": "Make Me Fat",
        "desc":  "Ajude um gordinho chique a comer do bom e do melhor.",
        "long_desc": "Um jogo casual que você jogar sozinho ou desafiando seus amigos.\nCorra o máximo que puder - derrube até o garçom do restaurante! - para alçancar o seu objetivo de comer do melhor. \nE claro, evite deixar restos, afinal o comilão é um gordinho chique.",
        "url": "https://play.google.com/store/apps/details?id=br.com.Avido.MakeMeFat",
        "img_url": "https://s3-sa-east-1.amazonaws.com/avidotec/images/make-me-fat.jpg",
        "video_url": "https://s3-sa-east-1.amazonaws.com/avidotec/videos/make-me-fat-playing-mode.mp4"

    },
    {
        "short_name": "stc",
        "title": "Shoot the Clown",
        "desc": "Arremesse a torta no palhaço e veja quantos pontos consegue fazer.",
        "long_desc": "Divirta-se arremessando tortas nos palhaços do circo e veja qual a maior pontuação que você consegue.\n-Acumule pontos acertando os palhaços.\n-Teste sua força no martelo de bônus.",
        "url": "https://play.google.com/store/apps/details?id=com.Avido.ShootTheClown",
        "img_url": "https://s3-sa-east-1.amazonaws.com/avidotec/images/shoot-the-clown.jpg"
    },
    {
        "short_name": "cf",
        "title": "Car Factory",
        "desc": "Divirta-se comandando uma fábrica de carros.",
        "long_desc": "Em breve mais informações sobre esse jogo.",
        "img_url": "https://s3-sa-east-1.amazonaws.com/avidotec/images/car-factory.jpg"
    }
  ]
}
